{
  "main": {
    "id": "0727297d173f4a98",
    "type": "split",
    "children": [
      {
        "id": "216397a8aa80a5f1",
        "type": "tabs",
        "children": [
          {
            "id": "18f1120dfd19d1b1",
            "type": "leaf",
            "state": {
              "type": "markdown",
              "state": {
                "file": "2023-07-25.md",
                "mode": "source",
                "source": false
              }
            }
          },
          {
            "id": "13024cb865373183",
            "type": "leaf",
            "state": {
              "type": "markdown",
              "state": {
                "file": "some-article.md",
                "mode": "source",
                "source": false
              }
            }
          }
        ]
      }
    ],
    "direction": "vertical"
  },
  "left": {
    "id": "8d8c805fd62dad52",
    "type": "split",
    "children": [
      {
        "id": "d098c47ee4bdb882",
        "type": "tabs",
        "children": [
          {
            "id": "38d18703e30d3b75",
            "type": "leaf",
            "state": {
              "type": "file-explorer",
              "state": {
                "sortOrder": "byModifiedTime"
              }
            }
          },
          {
            "id": "255eeb3ba1e1f954",
            "type": "leaf",
            "state": {
              "type": "search",
              "state": {
                "query": "",
                "matchingCase": false,
                "explainSearch": false,
                "collapseAll": false,
                "extraContext": false,
                "sortOrder": "alphabetical"
              }
            }
          },
          {
            "id": "a7c29ee4374c59fe",
            "type": "leaf",
            "state": {
              "type": "bookmarks",
              "state": {}
            }
          }
        ],
        "currentTab": 1
      }
    ],
    "direction": "horizontal",
    "width": 300
  },
  "right": {
    "id": "2dc23f6f82bee1b5",
    "type": "split",
    "children": [
      {
        "id": "997dafc209c80ea6",
        "type": "tabs",
        "children": [
          {
            "id": "9206da8799f8c0fd",
            "type": "leaf",
            "state": {
              "type": "backlink",
              "state": {
                "file": "2023-07-25.md",
                "collapseAll": false,
                "extraContext": false,
                "sortOrder": "alphabetical",
                "showSearch": false,
                "searchQuery": "",
                "backlinkCollapsed": false,
                "unlinkedCollapsed": true
              }
            }
          },
          {
            "id": "354efda92855860e",
            "type": "leaf",
            "state": {
              "type": "outgoing-link",
              "state": {
                "file": "2023-07-25.md",
                "linksCollapsed": false,
                "unlinkedCollapsed": true
              }
            }
          },
          {
            "id": "ca67015f5e17d76b",
            "type": "leaf",
            "state": {
              "type": "tag",
              "state": {
                "sortOrder": "frequency",
                "useHierarchy": true
              }
            }
          },
          {
            "id": "1110b575f29f3039",
            "type": "leaf",
            "state": {
              "type": "outline",
              "state": {
                "file": "2023-07-25.md"
              }
            }
          }
        ],
        "currentTab": 2
      }
    ],
    "direction": "horizontal",
    "width": 300
  },
  "left-ribbon": {
    "hiddenItems": {
      "switcher:Open quick switcher": false,
      "graph:Open graph view": false,
      "canvas:Create new canvas": false,
      "daily-notes:Open today's daily note": false,
      "templates:Insert template": false,
      "command-palette:Open command palette": false
    }
  },
  "active": "ca67015f5e17d76b",
  "lastOpenFiles": [
    "Untitled.canvas",
    "2023-07-25.md",
    "sattelite..md",
    "sattelite.md",
    "some-article.md",
    "japanesecastle.jpg",
    "Untitled 3.canvas",
    "Untitled 2.canvas",
    "yoga-yogic-mystic-experiences-or-self-knowledge.jpg",
    "wolpaper.jpg",
    "wallpaper.jpg",
    "walllp.jpg",
    "wall.jpg",
    "wal.jpg",
    "w.jpg",
    "Sentinel-2 L2A image on 2023-06-23.jpg",
    "pfp.jpg",
    "Untitled 1.canvas",
    "2023-07-24.md",
    "CV.pdf",
    "thoughts.md",
    "newest_blogs.md",
    "some-other-article.md",
    "20.md"
  ]
}